…
<br>

Lastly, let’s restructure how the columns are arranged in a more logical
manner. The final output is now our **analytic data**.

``` r
storm <- arr_cols(storm)
storm
```

    ## # A tibble: 460,934 x 16
    ##    EVTYPE STATE COUNTYNAME LATITUDE LONGITUDE BGN_DATE_TIME       BGN_YEAR
    ##    <chr>  <chr> <chr>         <dbl>     <dbl> <dttm>                 <dbl>
    ##  1 Winte~ CO    COZ061 - ~        0         0 2000-01-01 02:00:00     2000
    ##  2 Heavy~ ID    IDZ005>006        0         0 2000-01-01 02:30:00     2000
    ##  3 Heavy~ MT    MTZ001>00~        0         0 2000-01-01 02:30:00     2000
    ##  4 Heavy~ OR    ORZ011            0         0 2000-01-01 07:00:00     2000
    ##  5 Blizz~ AK    AKZ001            0         0 2000-01-01 12:00:00     2000
    ##  6 Droug~ HI    HIZ003 - ~        0         0 2000-01-01 12:00:00     2000
    ##  7 Heavy~ AZ    AZZ006 - ~        0         0 2000-01-01 12:00:00     2000
    ##  8 Heavy~ CA    CAZ055>056        0         0 2000-01-01 12:00:00     2000
    ##  9 Heavy~ CO    COZ003>00~        0         0 2000-01-01 12:00:00     2000
    ## 10 Heavy~ UT    UTZ028            0         0 2000-01-01 12:00:00     2000
    ## # ... with 460,924 more rows, and 9 more variables: BGN_MNTH <chr>,
    ## #   END_DATE_TIME <dttm>, END_YEAR <int>, END_MNTH <chr>, EV_LENGTH <drtn>,
    ## #   FATALITIES <dbl>, INJURIES <dbl>, PROPDMG <dbl>, CROPDMG <dbl>
…
